<?xml version="1.0" encoding="UTF-8"?>
<svg width="72px" height="51px" viewBox="0 0 72 51" version="1.1" xmlns="http://www.w3.org/2000/svg" xmlns:xlink="http://www.w3.org/1999/xlink">
    <!-- Generator: sketchtool 51 (57462) - http://www.bohemiancoding.com/sketch -->
    <title>4E2D76C9-54A6-450C-91C8-3CD2B5F1DFB9</title>
    <desc>Created with sketchtool.</desc>
    <defs></defs>
    <g id="Symbols" stroke="none" stroke-width="1" fill="none" fill-rule="evenodd">
        <g id="icons/ico_puntos" transform="translate(-24.000000, -31.000000)" fill="#595F66">
            <g id="ico_poits" transform="translate(20.000000, 24.000000)">
                <text id="+1" font-family="Arial-BoldMT, Arial" font-size="42" font-weight="bold">
                    <tspan x="16.0571289" y="38">+1</tspan>
                </text>
                <text id="De-puntos" font-family="ArialMT, Arial" font-size="16" font-weight="normal">
                    <tspan x="3.53125" y="56">De puntos</tspan>
                </text>
            </g>
        </g>
    </g>
</svg>