<?xml version="1.0" encoding="UTF-8"?>
<svg width="46px" height="75px" viewBox="0 0 46 75" version="1.1" xmlns="http://www.w3.org/2000/svg" xmlns:xlink="http://www.w3.org/1999/xlink">
    <!-- Generator: sketchtool 50.2 (55047) - http://www.bohemiancoding.com/sketch -->
    <title>C1F9988F-EDBB-4E01-82FC-50FD46C985F2</title>
    <desc>Created with sketchtool.</desc>
    <defs>
        <polygon id="path-1" points="0 74.3886719 44.8693576 74.3886719 44.8693576 0 0 0"></polygon>
    </defs>
    <g id="Symbols" stroke="none" stroke-width="1" fill="none" fill-rule="evenodd">
        <g id="icons/ico_registro" transform="translate(-37.000000, -23.000000)">
            <g id="ico_registro" transform="translate(37.565321, 23.305664)">
                <path d="M41.3270399,64.6980714 C41.3270399,68.2758123 38.1920888,70.8463542 34.6131671,70.8463542 L34.5375977,70.8463542 L28.7057619,70.8463542 L16.452885,70.8463542 L12.1029188,70.8463542 L10.3801717,70.8463542 C6.80243077,70.8463542 3.54231771,68.2758123 3.54231771,64.6980714 L3.54231771,10.0778939 C3.54231771,6.50015299 6.80243077,3.54231771 10.3801717,3.54231771 L34.6131671,3.54231771 C38.1920888,3.54231771 41.3270399,6.50015299 41.3270399,10.0778939 L41.3270399,64.6980714 Z M34.6131671,0 L10.3801717,0 C4.83998676,0 0,4.53652821 0,10.0778939 L0,64.6980714 C0,70.2370755 4.83998676,74.3886719 10.3801717,74.3886719 L34.6131671,74.3886719 C40.1557135,74.3886719 44.8693576,70.2370755 44.8693576,64.6980714 L44.8693576,10.0778939 C44.8693576,4.53652821 40.1557135,0 34.6131671,0 Z" id="Fill-1" fill="#5A5B5D"></path>
                <mask id="mask-2" fill="white">
                    <use xlink:href="#path-1"></use>
                </mask>
                <g id="Clip-4"></g>
                <polygon id="Fill-3" fill="#868F98" mask="url(#mask-2)" points="18.8923611 68.484809 27.1577691 68.484809 27.1577691 64.9424913 18.8923611 64.9424913"></polygon>
                <path d="M9.44618056,55.4963108 L35.4231771,55.4963108 L35.4231771,10.6269531 L9.44618056,10.6269531 L9.44618056,55.4963108 Z M7.08463542,57.8578559 L37.7847222,57.8578559 L37.7847222,8.26540799 L7.08463542,8.26540799 L7.08463542,57.8578559 Z" id="Fill-5" fill="#868F98" mask="url(#mask-2)"></path>
                <rect id="Rectangle" fill="#868F98" mask="url(#mask-2)" x="12.2911241" y="16.0616319" width="20.2871094" height="34"></rect>
                <rect id="Rectangle-2" fill="#F1F1F1" mask="url(#mask-2)" x="22.4346788" y="18.6538086" width="2.97449601" height="28.0665283"></rect>
                <rect id="Rectangle-2-Copy" fill="#F1F1F1" mask="url(#mask-2)" x="27.4494493" y="18.6538086" width="2.97449601" height="8.16943359"></rect>
                <rect id="Rectangle-2-Copy-2" fill="#F1F1F1" mask="url(#mask-2)" x="16.3980577" y="43.694458" width="3.04943848" height="3.02587891"></rect>
            </g>
        </g>
    </g>
</svg>